Log created: 2022-04-26T17:04:49.650519000Z
Process ID:  7384 (0x1cd8)
Parent PID:  2901 (0xb55)
Executable:  /usr/lib/virtualbox/VBoxHeadless
Arg[0]: /usr/lib/virtualbox/VBoxHeadless
Arg[1]: --comment
Arg[2]: cloud-vm-tp3
Arg[3]: --startvm
Arg[4]: 022f79a7-ac2b-4b82-b9f3-06905f5bb816
Arg[5]: --vrde
Arg[6]: config
AddRef: illegal refcnt=3221225469 state=2
